Project1
…
  num_columns <- length(parsed[1,])
  
  census_data <- data.frame(parsed[-1,])
  names(census_data) <- parsed[1,]

  return(as_tibble(census_data))
}

test this function with the example URL data:

census_tibble <- get_tibble(census_info)
census_tibble

# A tibble: 44,079 × 4
   SEX   PWGTP MAR   SCHL 
   <chr> <chr> <chr> <chr>
 1 2     6     5     24   
 2 2     23    2     24   
 3 1     23    3     24   
 4 1     80    5     24   
 5 1     16    1     24   
 6 1     107   3     24   
 7 2     10    5     24   
 8 1     22    1     24   
 9 2     127   5     24   
10 2     46    5     24   
# ℹ 44,069 more rows
…
  data_info <- httr::GET(URL_census)
  data = get_tibble(data_info)
  clean_data = format_num_and_cat_vars(data, numer_vars, cat_vars)
  
  #return(data)
}

#data_tibble_test <- query_census_api(year=2021, numer_vars=c("AGEP", "GASP", "GRPIP", "JWAP", "JWDP", "JWMNP", "PWGTP"))
#data_tibble_test <- query_census_api(year=2021, numer_vars=c("AGEP"), cat_vars=c("HISPEED"), geog="State", geog_values=c("06", "24"))
data_tibble_test <- query_census_api(year=2021, numer_vars=c("AGEP"), cat_vars=c("HISPEED"), geog="State")
#data_tibble_test <- query_census_api(year=2021, numer_vars=c("AGEP"), cat_vars=c("HISPEED"))

data_tibble_test

# A tibble: 2,532 × 5
   AGEP  PWGTP HISPEED SCHL  state
   <chr> <chr> <chr>   <chr> <chr>
 1 46    51    0       24    12   
 2 67    79    0       24    12   
 3 88    144   0       24    12   
 4 72    11    0       24    12   
 5 88    19    0       24    12   
 6 72    14    0       24    12   
 7 65    61    0       24    12   
 8 39    496   0       24    12   
 9 65    65    0       24    12   
10 88    7     0       24    12   
# ℹ 2,522 more rows
…
  for(i in seq_along(years)){
    year_tibble <- query_census_api(year=years[i], ...) |>
                      mutate(year=years[i])
    
    combined_tibble <- bind_rows(combined_tibble, year_tibble)
  }
  
  return(combined_tibble)
}

data_tibble <- query_with_years(numer_vars=c("JWAP"))

data_tibble

# A tibble: 2,731 × 6
   JWAP  PWGTP SEX   SCHL  state  year
   <chr> <chr> <chr> <chr> <chr> <dbl>
 1 134   97    2     24    12     2022
 2 0     64    1     24    12     2022
 3 0     76    1     24    12     2022
 4 110   307   1     24    12     2022
 5 109   97    2     24    12     2022
 6 0     64    2     24    12     2022
 7 217   23    2     24    12     2022
 8 105   91    1     24    12     2022
 9 0     93    2     24    12     2022
10 95    66    2     24    12     2022
# ℹ 2,721 more rows
