ST558 Project 1
…
data_tibble

# A tibble: 205,294 × 5
     Age Weight State Sex     Year
   <dbl>  <dbl> <chr> <fct>  <dbl>
 1    33     32 12    Male    2019
 2    19     45 12    Female  2019
 3    38     70 12    Male    2019
 4    60     17 12    Male    2019
 5    18    134 12    Male    2019
 6    29     11 12    Male    2019
 7    79     31 12    Female  2019
 8    43     83 12    Male    2019
 9    26     58 12    Male    2019
10    95      2 12    Female  2019
# ℹ 205,284 more rows
…
